Main_RMD
…
Main_RMD

knoedler %>%
  count(sell_auth_loc_1) %>%
  arrange(desc(n))

## # A tibble: 570 x 2
##    sell_auth_loc_1             n
##    <chr>                   <int>
##  1 <NA>                    15483
##  2 Paris, France            8118
##  3 New York, NY, USA        4067
##  4 London, England, UK      3589
##  5 Mnchen, Deutschland      802
##  6 Dsseldorf, Deutschland   730
##  7 Philadelphia, PA, USA     341
##  8 Berlin, Deutschland       288
##  9 Boston, MA, USA           269
## 10 Amsterdam, Nederland      177
## # ... with 560 more rows
…
